{
	"data": {
		"popularAirportOrArea": [{
			"code": null,
			"airportDisplay": null,
			"areaDisplay": {
				"code": null,
				"name": "Singapore",
				"location": "Singapore",
				"country": null,
				"iataCode": null,
				"airports": null
			},
			"source": null,
			"sourceValue": null,
			"score": "1"
		}],
		"recommendationAirportOrArea": [{
			"code": "SIN",
			"airportDisplay": {
				"code": "SIN",
				"name": "Changi Airport",
				"location": "Singapore",
				"shortLocation": "Singapore",
				"uniqueUrlName": "singapore",
				"country": null,
				"areaCode": "SIN",
				"airportIcaoCode": null,
				"isKeyCity": false,
				"domesticTaxWithCurrency": {
					"currency": "IDR",
					"amount": "0",
					"nullOrEmpty": true
				},
				"internationalTaxWithCurrency": {
					"currency": "IDR",
					"amount": "0",
					"nullOrEmpty": true
				},
				"geoLocation": {
					"lon": null,
					"lat": null
				},
				"keyCity": true
			},
			"areaDisplay": null,
			"source": null,
			"sourceValue": null,
			"score": "1"
		}],
		"query": null,
		"locale": "en_ID"
	}
}