{
    "Messages": [
        {
            "Code": "000",
            "Description": "Success.",
            "Type": "SUCCESS"
        }
    ],
    "FlightIndexes": [
        {
            "FlightDetails": [
                {
                    "Id": "1234N",
                    "RefNumber": "1",
                    "FlightDuration": "09,25",
                    "FlightStart": "2019-09-12T00:45",
                    "FlightEnd": "2019-09-12T12:10",
                    "FlightTransit": ["1"],
                    "FlightAirlineCode": "NH",
                    "TotalFare": 10107400,
                    "FlightFilter": ["1", "NH"],
                    "FlightSequences": [
                        {
                            "Departure": {
                                "Location": "CGK",
                                "Name": "Soekarno-Hatta Intl Airport (Jakarta)",
                                "Date": "2019-09-12T00:45",
                                "Time": "00:45",
                                "Terminal": "3"
                            },
                            "Arrival": {
                                "Location": "MNL",
                                "Name": "Ninoy Aquino Intl Airport (Manila)",
                                "Date": "2019-09-12T05:40",
                                "Time": "05:40",
                                "Terminal": "2"
                            },
                            "Airline": {
                                "Code": "NH",
                                "Name": "Philippine Airlines, Inc.",
                                "Logo": "../assets/img/ana-logo.png",
                                "FlightNo": "536",
                                "Equipment": "321"
                            },
                            "MarketingCompany": "NH",
                            "MarketingCompanyName": "Philippine Airlines, Inc.",
                            "OperatingCompany": "NH",
                            "OperatingCompanyName": "Philippine Airlines, Inc.",
                            "Eticket": "Y",
                            "TransitDuration": "01,30",
                            "FlightDuration": "03,35"
                        },
                        {
                            "Departure": {
                                "Location": "MNL",
                                "Name": "Ninoy Aquino Intl Airport (Manila)",
                                "Date": "2019-09-12T06:40",
                                "Time": "06:40",
                                "Terminal": "2"
                            },
                            "Arrival": {
                                "Location": "NRT",
                                "Name": "Narita Intl Airport (Tokyo)",
                                "Date": "2019-09-12T12:10",
                                "Time": "12:10",
                                "Terminal": "2"
                            },
                            "Airline": {
                                "Code": "NH",
                                "Name": "Philippine Airlines, Inc.",
                                "Logo": "../assets/img/ana-logo.png",
                                "FlightNo": "428",
                                "Equipment": "321"
                            },
                            "MarketingCompany": "PR",
                            "MarketingCompanyName": "Philippine Airlines, Inc.",
                            "OperatingCompany": "PR",
                            "OperatingCompanyName": "Philippine Airlines, Inc.",
                            "Eticket": "Y",
                            "TransitDuration": null,
                            "FlightDuration": "03,35"
                        }
                    ],
                    "Fares": [
                        {
                            "TotalFare": 10107400,
                            "TotalTax": 3077400,
                            "AdultFare": 5387900,
                            "AdultTax": 1587900,
                            "ChildFare": 4270000,
                            "ChildTax": 1420000,
                            "InfantFare": 449500,
                            "InfantTax": 69500,
                            "AirportTax": 0,
                            "Insurance": 0,
                            "Iwjr": 0,
                            "Others": 0,
                            "CabinCode": "M",
                            "AvailStatus": "9",
                            "BagAllowance": "25",
                            "BagUnit": "K",
                            "MealAllowance": null,
                            "MealUnit": null,
                            "VAT": 511169.4
                        }
                    ]
                },
                {
                    "Id": "21234N",
                    "RefNumber": "2",
                    "FlightDuration": "09,25",
                    "FlightStart": "2019-09-12T00:45",
                    "FlightEnd": "2019-09-12T12:10",
                    "FlightTransit": ["1"],
                    "FlightAirlineCode": "PR",
                    "TotalFare": 10107400,
                    "FlightFilter": ["1", "PR"],
                    "FlightSequences": [
                        {
                            "Departure": {
                                "Location": "CGK",
                                "Name": "Soekarno-Hatta Intl Airport (Jakarta)",
                                "Date": "2019-09-12T00:45",
                                "Time": "00:45",
                                "Terminal": "3"
                            },
                            "Arrival": {
                                "Location": "MNL",
                                "Name": "Ninoy Aquino Intl Airport (Manila)",
                                "Date": "2019-09-12T05:40",
                                "Time": "05:40",
                                "Terminal": "2"
                            },
                            "Airline": {
                                "Code": "NH",
                                "Name": "Philippine Airlines, Inc.",
                                "Logo": "../assets/img/ana-logo.png",
                                "FlightNo": "536",
                                "Equipment": "321"
                            },
                            "MarketingCompany": "PR",
                            "MarketingCompanyName": "Philippine Airlines, Inc.",
                            "OperatingCompany": "PR",
                            "OperatingCompanyName": "Philippine Airlines, Inc.",
                            "Eticket": "Y",
                            "TransitDuration": "01,30",
                            "FlightDuration": "03,35"
                        },
                        {
                            "Departure": {
                                "Location": "MNL",
                                "Name": "Ninoy Aquino Intl Airport (Manila)",
                                "Date": "2019-09-12T06:40",
                                "Time": "06:40",
                                "Terminal": "2"
                            },
                            "Arrival": {
                                "Location": "NRT",
                                "Name": "Narita Intl Airport (Tokyo)",
                                "Date": "2019-09-12T12:10",
                                "Time": "12:10",
                                "Terminal": "2"
                            },
                            "Airline": {
                                "Code": "NH",
                                "Name": "Philippine Airlines, Inc.",
                                "Logo": "../assets/img/ana-logo.png",
                                "FlightNo": "428",
                                "Equipment": "321"
                            },
                            "MarketingCompany": "PR",
                            "MarketingCompanyName": "Philippine Airlines, Inc.",
                            "OperatingCompany": "PR",
                            "OperatingCompanyName": "Philippine Airlines, Inc.",
                            "Eticket": "Y",
                            "TransitDuration": null,
                            "FlightDuration": "03,35"
                        }
                    ],
                    "Fares": [
                        {
                            "TotalFare": 10107400,
                            "TotalTax": 3077400,
                            "AdultFare": 5387900,
                            "AdultTax": 1587900,
                            "ChildFare": 4270000,
                            "ChildTax": 1420000,
                            "InfantFare": 449500,
                            "InfantTax": 69500,
                            "AirportTax": 0,
                            "Insurance": 0,
                            "Iwjr": 0,
                            "Others": 0,
                            "CabinCode": "M",
                            "AvailStatus": "9",
                            "BagAllowance": "25",
                            "BagUnit": "K",
                            "MealAllowance": null,
                            "MealUnit": null,
                            "VAT": 511169.4
                        }
                    ]
                },
                {
                    "Id": "2345X",
                    "RefNumber": "2",
                    "FlightDuration": "09,55",
                    "FlightStart": "2019-09-12T00:35",
                    "FlightEnd": "2019-09-12T12:10",
                    "FlightTransit": ["0"],
                    "FlightAirlineCode": "GA",
                    "TotalFare": 10007400,
                    "FlightFilter": ["0", "GA"],
                    "FlightSequences": [
                        {
                            "Departure": {
                                "Location": "CGK",
                                "Name": "Soekarno-Hatta Intl Airport (Jakarta)",
                                "Date": "2019-09-12T00:35",
                                "Time": "00:35",
                                "Terminal": "3"
                            },
                            "Arrival": {
                                "Location": "MNL",
                                "Name": "Ninoy Aquino Intl Airport (Manila)",
                                "Date": "2019-09-12T05:40",
                                "Time": "05:40",
                                "Terminal": "2"
                            },
                            "Airline": {
                                "Code": "GA",
                                "Name": "Garuda Indonesia Airlines",
                                "Logo": "../assets/img/GA-logo.jpg",
                                "FlightNo": "536",
                                "Equipment": "321"
                            },
                            "MarketingCompany": "GA",
                            "MarketingCompanyName": "Garuda Indonesia Airlines",
                            "OperatingCompany": "GA",
                            "OperatingCompanyName": "Garuda Indonesia Airlines",
                            "Eticket": "Y",
                            "TransitDuration": null,
                            "FlightDuration": "03,35"
                        }
                    ],
                    "Fares": [
                        {
                            "TotalFare": 10007400,
                            "TotalTax": 3077400,
                            "AdultFare": 5387900,
                            "AdultTax": 1587900,
                            "ChildFare": 4270000,
                            "ChildTax": 1420000,
                            "InfantFare": 449500,
                            "InfantTax": 69500,
                            "AirportTax": 0,
                            "Insurance": 0,
                            "Iwjr": 0,
                            "Others": 0,
                            "CabinCode": "M",
                            "AvailStatus": "9",
                            "BagAllowance": "25",
                            "BagUnit": "K",
                            "MealAllowance": null,
                            "MealUnit": null,
                            "VAT": 511169.4
                        }
                    ]
                }
                ,
                {
                    "Id": "3456F",
                    "RefNumber": "3",
                    "FlightDuration": "12,25",
                    "FlightStart": "2019-09-12T01:35",
                    "FlightEnd": "2019-09-12T13:10",
                    "FlightTransit": ["0"],
                    "FlightAirlineCode": "GA",
                    "TotalFare": 10007400,
                    "FlightFilter": ["0", "GA"],
                    "FlightSequences": [
                        {
                            "Departure": {
                                "Location": "CGK",
                                "Name": "Soekarno-Hatta Intl Airport (Jakarta)",
                                "Date": "2019-09-12T01:35",
                                "Time": "01:35",
                                "Terminal": "3"
                            },
                            "Arrival": {
                                "Location": "MNL",
                                "Name": "Ninoy Aquino Intl Airport (Manila)",
                                "Date": "2019-09-12T13:10",
                                "Time": "13:10",
                                "Terminal": "2"
                            },
                            "Airline": {
                                "Code": "GA",
                                "Name": "Garuda Indonesia Airlines",
                                "Logo": "../assets/img/GA-logo.jpg",
                                "FlightNo": "536",
                                "Equipment": "321"
                            },
                            "MarketingCompany": "GA",
                            "MarketingCompanyName": "Garuda Indonesia Airlines",
                            "OperatingCompany": "GA",
                            "OperatingCompanyName": "Garuda Indonesia Airlines",
                            "Eticket": "Y",
                            "TransitDuration": null,
                            "FlightDuration": "03,35"
                        }
                    ],
                    "Fares": [
                        {
                            "TotalFare": 10007400,
                            "TotalTax": 3077400,
                            "AdultFare": 5387900,
                            "AdultTax": 1587900,
                            "ChildFare": 4270000,
                            "ChildTax": 1420000,
                            "InfantFare": 449500,
                            "InfantTax": 69500,
                            "AirportTax": 0,
                            "Insurance": 0,
                            "Iwjr": 0,
                            "Others": 0,
                            "CabinCode": "M",
                            "AvailStatus": "9",
                            "BagAllowance": "25",
                            "BagUnit": "K",
                            "MealAllowance": null,
                            "MealUnit": null,
                            "VAT": 511169.4
                        }
                    ]
                }
            ]
        },
        {
            "FlightDetails": [
                {
                    "Id": "9876R",
                    "RefNumber": "2",
                    "FlightDuration": "10,50",
                    "FlightStart": "2019-09-15T00:45",
                    "FlightEnd": "2019-09-15T12:10",
                    "FlightTransit": ["1"],
                    "FlightAirlineCode": "PR",
                    "TotalFare": 10107402,
                    "FlightFilter": ["1", "PR", "GA"],
                    "FlightSequences": [
                        {
                            "Departure": {
                                "Location": "HND",
                                "Name": "Tokyo Intl Airport (Haneda)",
                                "Date": "2019-09-15T15:05",
                                "Time": "15:05",
                                "Terminal": "I"
                            },
                            "Arrival": {
                                "Location": "MNL",
                                "Date": "2019-09-15T18:55",
                                "Time": "18:55",
                                "Terminal": "2"
                            },
                            "Airline": {
                                "Code": "GA",
                                "Name": "Philippine Airlines, Inc.",
                                "Logo": "../assets/img/GA-logo.jpg",
                                "FlightNo": "421",
                                "Equipment": "333"
                            },
                            "MarketingCompany": "PR",
                            "MarketingCompanyName": "Philippine Airlines, Inc.",
                            "OperatingCompany": "PR",
                            "OperatingCompanyName": "Philippine Airlines, Inc.",
                            "Eticket": "Y",
                            "TransitDuration": "01,30",
                            "FlightDuration": "03,35"
                        },
                        {
                            "Departure": {
                                "Location": "MNL",
                                "Name": "Ninoy Aquino Intl Airport (Manila)",
                                "Date": "2019-09-15T21:00",
                                "Time": "21:00",
                                "Terminal": "2"
                            },
                            "Arrival": {
                                "Location": "CGK",
                                "Name": "Soekarno Hatta Intl Airport (Jakarta)",
                                "Date": "2019-09-15T23:55",
                                "Time": "23:55",
                                "Terminal": "3"
                            },
                            "Airline": {
                                "Code": "NH",
                                "Name": "Garuda Indonesia Airlines",
                                "Logo": "../assets/img/ana-logo.png",
                                "FlightNo": "536",
                                "Equipment": "321"
                            },
                            "MarketingCompany": "GA",
                            "MarketingCompanyName": "Garuda Indonesia Airlines",
                            "OperatingCompany": "GA",
                            "OperatingCompanyName": "Garuda Indonesia Airlines",
                            "Eticket": "Y",
                            "TransitDuration": null,
                            "FlightDuration": "03,35"
                        }
                    ],
                    "Fares": [
                        {
                            "TotalFare": 10107402,
                            "TotalTax": 3077400,
                            "AdultFare": 5387900,
                            "AdultTax": 1587900,
                            "ChildFare": 4270000,
                            "ChildTax": 1420000,
                            "InfantFare": 449500,
                            "InfantTax": 69500,
                            "AirportTax": 0,
                            "Insurance": 0,
                            "Iwjr": 0,
                            "Others": 0,
                            "CabinCode": "M",
                            "AvailStatus": "9",
                            "BagAllowance": "25",
                            "BagUnit": "K",
                            "MealAllowance": null,
                            "MealUnit": null,
                            "VAT": 511169.4
                        }
                    ]
                },
                {
                    "Id": "98761R",
                    "RefNumber": "1",
                    "FlightDuration": "10,50",
                    "FlightStart": "2019-09-15T00:45",
                    "FlightEnd": "2019-09-15T12:10",
                    "FlightTransit": ["0"],
                    "FlightAirlineCode": "PR",
                    "TotalFare": 10207402,
                    "FlightFilter": ["1", "PR", "GA"],
                    "FlightSequences": [
                        {
                            "Departure": {
                                "Location": "HND",
                                "Name": "Tokyo Intl Airport (Haneda)",
                                "Date": "2019-09-15T15:05",
                                "Time": "15:05",
                                "Terminal": "I"
                            },
                            "Arrival": {
                                "Location": "MNL",
                                "Name": "Ninoy Aquino Intl Airport (Manila)",
                                "Date": "2019-09-15T18:55",
                                "Time": "18:55",
                                "Terminal": "2"
                            },
                            "Airline": {
                                "Code": "NH",
                                "Name": "Philippine Airlines, Inc.",
                                "Logo": "../assets/img/ana-logo.png",
                                "FlightNo": "421",
                                "Equipment": "333"
                            },
                            "MarketingCompany": "PR",
                            "MarketingCompanyName": "Philippine Airlines, Inc.",
                            "OperatingCompany": "PR",
                            "OperatingCompanyName": "Philippine Airlines, Inc.",
                            "Eticket": "Y",
                            "TransitDuration": "01,30",
                            "FlightDuration": "03,35"
                        }
                    ],
                    "Fares": [
                        {
                            "TotalFare": 10107402,
                            "TotalTax": 3077400,
                            "AdultFare": 5387900,
                            "AdultTax": 1587900,
                            "ChildFare": 4270000,
                            "ChildTax": 1420000,
                            "InfantFare": 449500,
                            "InfantTax": 69500,
                            "AirportTax": 0,
                            "Insurance": 0,
                            "Iwjr": 0,
                            "Others": 0,
                            "CabinCode": "M",
                            "AvailStatus": "9",
                            "BagAllowance": "25",
                            "BagUnit": "K",
                            "MealAllowance": null,
                            "MealUnit": null,
                            "VAT": 511169.4
                        }
                    ]
                },
                {
                    "Id": "298761R",
                    "RefNumber": "2",
                    "FlightDuration": "10,50",
                    "FlightStart": "2019-09-15T00:45",
                    "FlightEnd": "2019-09-15T12:10",
                    "FlightTransit": ["0"],
                    "FlightAirlineCode": "PR",
                    "TotalFare": 10207402,
                    "FlightFilter": ["1", "PR", "GA"],
                    "FlightSequences": [
                        {
                            "Departure": {
                                "Location": "HND",
                                "Name": "Tokyo Intl Airport (Haneda)",
                                "Date": "2019-09-15T15:05",
                                "Time": "15:05",
                                "Terminal": "I"
                            },
                            "Arrival": {
                                "Location": "MNL",
                                "Name": "Ninoy Aquino Intl Airport (Manila)",
                                "Date": "2019-09-15T18:55",
                                "Time": "18:55",
                                "Terminal": "2"
                            },
                            "Airline": {
                                "Code": "NH",
                                "Name": "Philippine Airlines, Inc.",
                                "Logo": "../assets/img/ana-logo.png",
                                "FlightNo": "421",
                                "Equipment": "333"
                            },
                            "MarketingCompany": "PR",
                            "MarketingCompanyName": "Philippine Airlines, Inc.",
                            "OperatingCompany": "PR",
                            "OperatingCompanyName": "Philippine Airlines, Inc.",
                            "Eticket": "Y",
                            "TransitDuration": "01,30",
                            "FlightDuration": "03,35"
                        }
                    ],
                    "Fares": [
                        {
                            "TotalFare": 10107402,
                            "TotalTax": 3077400,
                            "AdultFare": 5387900,
                            "AdultTax": 1587900,
                            "ChildFare": 4270000,
                            "ChildTax": 1420000,
                            "InfantFare": 449500,
                            "InfantTax": 69500,
                            "AirportTax": 0,
                            "Insurance": 0,
                            "Iwjr": 0,
                            "Others": 0,
                            "CabinCode": "M",
                            "AvailStatus": "9",
                            "BagAllowance": "25",
                            "BagUnit": "K",
                            "MealAllowance": null,
                            "MealUnit": null,
                            "VAT": 511169.4
                        }
                    ]
                }
            ]
        }
    ],
    "ResultID": "be83806c-077c-41f9-a300-f69c212050b3",
    "ResultPassengers": [3,1,0]
}